id,name,model_id:id,group_id:id,perm_read,perm_write,perm_create,perm_unlink
access_sale_request.manager,sale.request.manager,model_sale_request,,1,1,1,1
access_sale_request.user,sale.request.user,model_sale_request,,1,0,0,0
access_sale_request_line.manager,sale.request.line.manager,model_sale_request_line,,1,1,1,1
access_sale_request_line.user,sale.request.line.user,model_sale_request_line,,1,0,0,0
access_purchase_request.manager,purchase.request.manager,model_purchase_request,,1,1,1,1
access_purchase_request.user,purchase.request.user,model_purchase_request,,1,0,0,0
access_purchase_request_line.manager,purchase.request.line.manager,model_purchase_request_line,,1,1,1,1
access_purchase_request_line.user,purchase.request.line.user,model_purchase_request_line,,1,0,0,0
